{
    "id" : "cte",
    "title" : "projets CTE",
    "author" : "5534fd9da1aa14201b0041cb",
    "custom" : {
        "header" : "survey.views.custom.cte",
        "footer" : "survey.views.custom.cteFooter",
        "logo" : "/images/custom/cte/logo-tco-cte.jpg",
        "endTpl" : "home",
        "color" : "#00B795",
        "roles" : [ 
            "Ville jardin désirable et support de biodiversité", 
            "Production renouvelable", 
            "Maîtrise de l’énergie", 
            "Eco-mobilités", 
            "Economie Sociale et solidaire", 
            "Economie circulaire et circuits courts"
        ],
        "tags" : [ 
            "Eco Quartier de la Possession", 
            "Plateforme de Transition Ecologique", 
            "Port Maritime Durable", 
            "Filière papier carton", 
            "Animation évaluation"
        ],
        "mail" : {
            "invitation" : {
                "msg" : "Bienvenue sur la plate-forme des projets du CTE"
            }
        }
    },
    "countryCode" : "RE",
    "description" : "Bienvenue sur la plate-forme des projets du CTE.<br/><br/> Différentes phases sont prévues dans le cadre de votre participation au Contrat de Transition Ecologique du TCO.<br/><br/> La première phase est celle du dépôt de votre projet. Chaque étape du formulaire est nécessaire pour prendre en compte de votre candidature.<br/><br/> Cette phase 1 vise à recenser les projets voulant s’inscriredans la transition écologique du territoire Ouest de La Réunion. <br/><br/>La phase suivant celle du dépôt des projets est la phase d'évaluation et de présélection des projets qui participeront à la phase finale, celle de l’élection des projets qui bénéficieront de l'aide du Contrat de Transition Ecologique du TCO.",
    "parentType" : "organizations",
    "parentId" : "5b47451ddd0452ca52000693",
    "surveyType" : "surveyList",
    "scenario" : {
        "cte1" : {
            "title" : "Porteur du projet",
            "description" : "Référencer le porteur du projet ainsi qu'un référent au sein de la structure",
            "icon" : "fa-users"
        },
        "cte2" : {
            "title" : "Fiche du projet",
            "description" : "La fiche qui sera mise en ligne lors de l'ouverture au vote",
            "icon" : "fa-lightbulb-o"
        },
        "cte3" : {
            "title" : "Dépot de l'action",
            "description" : "Objectif et prévisionnel de l'action dans le cadre du CTE",
            "icon" : "fa-list"
        }
    },
    "updated" : NumberLong(1531826331),
    "modified" : ISODate("2018-07-17T11:18:51.000Z")
}