{
    "id" : "cteAdmin",
    "parentSurvey" : "cteAdmin",
    "title" : "Priorisation",
    "key" : "priorisation",
    "author" : "5534fd9da1aa14201b0041cb",
    "description" : "MATRICE D'EVALUATION OPPORTUNITE MATRICE D'EVALUATION OPPORTUNITE MATRICE D'EVALUATION OPPORTUNITE MATRICE D'EVALUATION OPPORTUNITE MATRICE D'EVALUATION OPPORTUNITE MATRICE D'EVALUATION OPPORTUNITE MATRICE D'EVALUATION OPPORTUNITE MATRICE D'EVALUATION OPPORTUNITE MATRICE D'EVALUATION OPPORTUNITE MATRICE D'EVALUATION OPPORTUNITE ",
    "parentType" : "organizations",
    "parentId" : "5b47451ddd0452ca52000693",
    "surveyType" : "oneSurvey",
    "adminRole" : "TCO",
    "scenarioAdmin" : {
        "dossier" : {
            "title" : "Dossier",
            "icon" : "folder-open-o",
            "startDate" : ISODate("2018-06-10T12:01:14.000Z"),
            "endDate" : ISODate("2018-09-17T12:01:14.000Z")
        },
        "eligible" : {
            "title" : "Éligibilité <br/>par TCOPIL",
            "icon" : "thumbs-o-up",
            "startDate" : ISODate("2018-09-17T12:01:14.000Z"),
            "endDate" : ISODate("2018-09-17T12:01:14.000Z")
        },
        "priorisation" : {
            "title" : "Priorisation<br/> par TCOPIL",
            "icon" : "sort-amount-desc",
            "startDate" : ISODate("2018-09-17T12:01:14.000Z"),
            "endDate" : ISODate("2018-09-17T12:01:14.000Z"),
            "mail" : {
                "tpl" : "eligibilite",
                "tplObject" : "Etape de priorisation CTE",
                "messages" : "Votre projet est passé à l'étape de priorisation"
            }
        },
        "risk" : {
            "title" : "Gestion du Risque",
            "icon" : "warning",
            "startDate" : ISODate("2018-09-17T12:01:14.000Z"),
            "endDate" : ISODate("2018-09-17T12:01:14.000Z"),
            "mail" : {
                "tpl" : "eligibilite",
                "tplObject" : "Etape des contrainte du CTE",
                "messages" : "Votre projet est passé à l'étape des contraintes"
            }
        },
        "ficheAction" : {
            "title" : "Fiches Actions",
            "icon" : "file-text",
            "startDate" : ISODate("2018-09-17T12:01:14.000Z"),
            "endDate" : ISODate("2018-09-17T12:01:14.000Z"),
            "mail" : {
                "tpl" : "eligibilite",
                "tplObject" : "Etape de risque CTE",
                "messages" : "Votre projet est passé à l'étape d'etre ajouté à une fiche action"
            }
        }
    },
    "scenario" : {
        "opportunite" : {
            "title" : "MATRICE D'EVALUATION OPPORTUNITE",
            "description" : "critère d'évaluation d'opportunité",
            "icon" : "fa-clock-o",
            "json" : {
                "jsonSchema" : {
                    "title" : "MATRICE D'EVALUATION OPPORTUNITE",
                    "type" : "object",
                    "properties" : {
                        "prioPolitique" : {
                            "inputType" : "select",
                            "placeholder" : "Priorité Politique",
                            "weight" : "25","rules" : {
                                "required" : true
                            },
                            "options" : {
                                "1" : "Pas d'alignement stratégique",
                                "3" : "Rattachement à 1 opérationnel",
                                "5" : "Rattachement à plus d'un objectif opérationnel"
                            }
                        },
                        "maitriseRisque" : {
                            "inputType" : "select",
                            "placeholder" : "Maitrise des risques",
                            "weight" : "20","rules" : {
                                "required" : true
                            },
                            "options" : {
                                "1" : "Pas d'inventaire des risques",
                                "3" : "Risques identifiés Service pour l'usager",
                                "5" : "Risques identifiés et parades définies pour les contrer"
                            }
                        },
                        "beneficeUsager" : {
                            "inputType" : "select",
                            "placeholder" : "Bénéfice pour les usagers",
                            "weight" : "30","rules" : {
                                "required" : true
                            },
                            "options" : {
                                "1" : "Service pour les entreprises",
                                "3" : "Service pour l'usager",
                                "5" : "Service de droit commun "
                            }
                        },
                        "retourInvest" : {
                            "inputType" : "select",
                            "placeholder" : "Retour sur investissement",
                            "weight" : "25",
                            "rules" : {
                                "required" : true
                            },
                            "options" : {
                                "1" : "> 20 ans",
                                "3" : "Comprise entre 3 ans et 20 ans",
                                "5" : "< 3 ans"
                            }
                        },
                        "prioDesc" : {
                            "inputType" : "textarea",
                            "placeholder" : "Décrivez la raison du choix",
                            "class" : "description3 markdown"
                        }
                    }
                }
            }
        },
        "faisabilite" : {
            "title" : "MATRICE D'EVALUATION FAISABILITE",
            "description" : "critère d'évaluation de faisabilité",
            "icon" : "fa-thumbs-o-up",
            "json" : {
                "jsonSchema" : {
                    "title" : "MATRICE D'EVALUATION FAISABILITE",
                    "type" : "object",
                    "properties" : {
                        "calendrier" : {
                            "inputType" : "select",
                            "placeholder" : "Maîtrise du calendrier",
                            "weight" : "25",
                            "rules" : {
                                "required" : true
                            },
                            "options" : {
                                "1" : "Pas de planning",
                                "3" : "Planning partiellement défini",
                                "5" : "Planning maitrisé"
                            }
                        },
                        "maitriseRisque" : {
                            "inputType" : "select",
                            "weight" : "25",
                            "rules" : {
                                "required" : true
                            },
                            "placeholder" : "Capacité de mobilisation des acteurs",
                            "options" : {
                                "1" : "Acteurs non identifiés",
                                "3" : "Acteurs identifiés non disponibles",
                                "5" : "Acteurs identifiés et disponibles"
                            }
                        },
                        "finance" : {
                            "inputType" : "select",
                            "weight" : "25",
                            "rules" : {
                                "required" : true
                            },
                            "placeholder" : "Capacité financière",
                            "options" : {
                                "1" : "Capacité financière à 20%",
                                "3" : "Capacité financière à 60%",
                                "5" : "Capacité financière à 100%"
                            }
                        },
                        "retourInvest" : {
                            "inputType" : "select",
                            "weight" : "25",
                            "rules" : {
                                "required" : true
                            },
                            "placeholder" : "Capacité technique",
                            "options" : {
                                "1" : "Pas de processus",
                                "3" : "Processus non reproductible",
                                "5" : "Processus validé"
                            }
                        }
                    }
                }
            }
        }
    },
    "scenarioFicheAction" : {
        "ficheAction" : {
            "title" : "Fiche Action",
            "description" : "Formulaire d'une Fiche Action",
            "icon" : "cogs",
            "form" : {
                "scenario" : {
                    "projects" : {
                        "title" : "Projets",
                        "description" : "liste des projets associés à cette fiche action",
                        "arrayForm" : true,
                        "icon" : "fa-lightbulb-o",
                        "json" : {
                            "jsonSchema" : {
                                "title" : "Projets associés",
                                "icon" : "fa-lightbulb-o",
                                "properties" : {
                                    "projectsLinked" : {
                                        "inputType" : "arrayForm",
                                        "label" : "Liste des projets",
                                        "properties" : {
                                            "project" : {
                                                "placeholder" : "Projet"
                                            },
                                            "name" : {
                                                "placeholder" : "name"
                                            },
                                            "description" : {
                                                "placeholder" : "description"
                                            },
                                            "indicateur" : {
                                                "placeholder" : "indicateur",
                                                "class" : "description3 markdown"
                                            }
                                        }
                                    }
                                }
                            }
                        }
                    },
                    "detail" : {
                        "title" : "Détail",
                        "description" : "critère d'évaluation de faisabilité",
                        "icon" : "fa-info-circle",
                        "json" : {
                            "jsonSchema" : {
                                "title" : "Détail",
                                "type" : "object",
                                "properties" : {
                                    "startDate" : {
                                        "inputType" : "date",
                                        "label" : "Date de la demande",
                                        "placeholder" : "Date de la demande"
                                    },
                                    "partenaires" : {
                                        "inputType" : "text",
                                        "label" : "Partenaires",
                                        "placeholder" : "Quels sont les partenaires de cette fiche action ?"
                                    },
                                    "coherence" : {
                                        "inputType" : "textarea",
                                        "label" : "Analyse de cohérence",
                                        "placeholder" : "Eléments de justification de la cohérence du projet avec les orientations stratégiques du CTE TCO",
                                        "class" : "description3 markdown"
                                    }
                                }
                            }
                        }
                    },
                    "descriptif" : {
                        "title" : "Descriptif de l'action",
                        "description" : "Descriptif de l'action",
                        "icon" : "fa-info-circle",
                        "json" : {
                            "jsonSchema" : {
                                "title" : "Descriptif de l'action",
                                "type" : "object",
                                "properties" : {
                                    "importance" : {
                                        "inputType" : "textarea",
                                        "label" : "Indiquer les impacts attendus",
                                        "placeholder" : "Importance de l'action",
                                        "class" : "description3 markdown"
                                    },
                                    "objectifGeneral" : {
                                        "inputType" : "textarea",
                                        "label" : "Objectif général",
                                        "placeholder" : "Pour atteindre l'objectif général il faut plusieurs objectifs intermédiaires. C'est l'objectif stratégique.",
                                        "class" : "description3 markdown"
                                    },
                                    "objectifsIntermediaires" : {
                                        "inputType" : "textarea",
                                        "label" : "Objectifs intermédiaires et projets portés",
                                        "placeholder" : "Indiquez les projets à mener pour atteindre chaque objectif intermédiaire",
                                        "class" : "description3 markdown"
                                    },
                                    
                                    "evaluation" : {
                                        "inputType" : "textarea",
                                        "label" : "Evaluation de l'action",
                                        "placeholder" : "Définir la méthode d'évaluation de l'action. Indiquer le pilote de l'évaluation si différent du porteur",
                                        "class" : "description3 markdown"
                                    },
                                    "contraintes" : {
                                        "inputType" : "textarea",
                                        "label" : "Contraintes/ Risques (financiers - juridique/réglmentaire - RH - Technique)",
                                        "placeholder" : "Le cadre juridique, financier et technique dans le quel le projet devra se déployer",
                                        "class" : "description3 markdown"
                                    }
                                }
                            }
                        }
                    },
                    "results" : {
                        "title" : "Résultats attendus de l'action",
                        "description" : "Présenter 1 indicateur de résultat à minima et les sources de données",
                        "arrayForm" : true,
                        "icon" : "fa-calendar-check-o",
                        "json" : {
                            "jsonSchema" : {
                                "title" : "Résultats attendus de l'action",
                                "icon" : "fa-lightbulb-o",
                                "properties" : {
                                    "results" : {
                                        "inputType" : "arrayForm",
                                        "properties" : {
                                            "source" : {
                                                "inputType" : "textarea",
                                                "label" : "Indiquer les impacts attendus",
                                                "placeholder" : "Source et modalités de calcul"
                                            },
                                            "ref2018" : {
                                                "inputType" : "textarea",
                                                "label" : "Réf. 2018",
                                                "placeholder" : "Réf. 2018"
                                            },
                                            "res2019" : {
                                                "inputType" : "textarea",
                                                "label" : "Résultat 2019",
                                                "placeholder" : "Résultat 2019"
                                            },
                                            "res2020" : {
                                                "inputType" : "textarea",
                                                "label" : "Résultat 2020",
                                                "placeholder" : "Résultat 2020"
                                            },
                                            "res2021" : {
                                                "inputType" : "textarea",
                                                "label" : "Résultat 2019",
                                                "placeholder" : "Résultat 2021"
                                            }
                                        }
                                    }
                                }
                            }
                        }
                    },

                    "potentialite" : {
                        "title" : "Potentialité de l'action",
                        "description" : "Potentialité de l'action",
                        "icon" : "fa-thumbs-o-up",
                        "json" : {
                            "jsonSchema" : {
                                "title" : "Potentialité de l'action",
                                "type" : "object",
                                "properties" : {
                                    "technologique" : {
                                        "inputType" : "textarea",
                                        "label" : "Technologique",
                                        "placeholder" : "Technologique",
                                        "class" : "description3 markdown"
                                    },
                                    "marketingTerritorial" : {
                                        "inputType" : "textarea",
                                        "label" : "Marketing territorial",
                                        "placeholder" : "Marketing territorial",
                                        "class" : "description3 markdown"
                                    },
                                    "other" : {
                                        "inputType" : "textarea",
                                        "label" : "Autre",
                                        "placeholder" : "Autre (à préciser)…",
                                        "class" : "description3 markdown"
                                    }
                                }
                            }
                        }
                    },
                    "swot" : {
                        "title" : "Analyse SWOT",
                        "description" : "Analyse SWOT",
                        "icon" : "fa-thumbs-o-up",
                        "json" : {
                            "jsonSchema" : {
                                "title" : "Analyse SWOT",
                                "type" : "object",
                                "properties" : {
                                    "opportunite" : {
                                        "inputType" : "textarea",
                                        "label" : "Opportunité",
                                        "placeholder" : "Opportunité",
                                        "class" : "description3 markdown"
                                    },
                                    "force" : {
                                        "inputType" : "textarea",
                                        "label" : "Force",
                                        "placeholder" : "Force",
                                        "class" : "description3 markdown"
                                    },
                                    "menaces" : {
                                        "inputType" : "textarea",
                                        "label" : "Menaces",
                                        "placeholder" : "Menaces",
                                        "class" : "description3 markdown"
                                    },
                                    "faiblesse" : {
                                        "inputType" : "textarea",
                                        "label" : "Faiblesse",
                                        "placeholder" : "Faiblesse",
                                        "class" : "description3 markdown"
                                    }
                                }
                            }
                        }
                    },
                    "validationTech" : {
                        "title" : "Validation Technique de l'action",
                        "description" : "Validation Technique de l'action",
                        "icon" : "fa-cogs",
                        "titleClass" : "text-red",
                        "json" : {
                            "jsonSchema" : {
                                "title" : "Validation Technique de l'action",
                                "type" : "object",
                                "properties" : {
                                    "confirmationTech" : {
                                        "inputType" : "select",
                                        "label" : "Validation",
                                        "placeholder" : "Confirmez l'aspect technique",
                                        "options" : {
                                            "valider" : "Valider",
                                            "pending" : "En attente",
                                            "refuser" : "Refuser"
                                        }
                                    },
                                    "technique" : {
                                        "inputType" : "textarea",
                                        "label" : "Validation technique",
                                        "placeholder" : "Avis",
                                        "class" : "description3 markdown"
                                    },
                                    "techniqueDate" : {
                                        "inputType" : "date",
                                        "label" : "Date de la validation technique",
                                        "placeholder" : "Date de la validation technique"
                                    }
                                }
                            }
                        }
                    },
                    "validationFinance" : {
                        "title" : "Validation Financière de l'action",
                        "description" : "Validation Finance de l'action",
                        "icon" : "fa-money",
                        "titleClass" : "text-red",
                        "json" : {
                            "jsonSchema" : {
                                "title" : "Validation Finance de l'action",
                                "type" : "object",
                                "properties" : {
                                    "confirmationFinance" : {
                                        "inputType" : "select",
                                        "label" : "Validation",
                                        "placeholder" : "Confirmez l'aspect financier",
                                        "options" : {
                                            "valider" : "Valider",
                                            "pending" : "En attente",
                                            "refuser" : "Refuser"
                                        }
                                    },
                                    "financière" : {
                                        "inputType" : "textarea",
                                        "label" : "Validation financière",
                                        "placeholder" : "Avis",
                                        "class" : "description3 markdown"
                                    },
                                    "financiereDate" : {
                                        "inputType" : "date",
                                        "label" : "Date de la validation financière",
                                        "placeholder" : "Date de la validation financière"
                                    }
                                }
                            }
                        }
                    },
                    "validationJuridique" : {
                        "title" : "Validation Juridique de l'action",
                        "description" : "Validation Juridique de l'action",
                        "icon" : "fa-gavel",
                        "titleClass" : "text-red",
                        "json" : {
                            "jsonSchema" : {
                                "title" : "Validation Juridique de l'action",
                                "type" : "object",
                                "properties" : {
                                    "confirmationJuridique" : {
                                        "inputType" : "select",
                                        "label" : "Validation",
                                        "placeholder" : "Confirmez l'aspect juridique",
                                        "options" : {
                                            "valider" : "Valider",
                                            "pending" : "En attente",
                                            "refuser" : "Refuser"
                                        }
                                    },
                                    "juridique" : {
                                        "inputType" : "textarea",
                                        "label" : "Validation juridique",
                                        "placeholder" : "Avis",
                                        "class" : "description3 markdown"
                                    },
                                    "juridiqueDate" : {
                                        "inputType" : "date",
                                        "label" : "Date de la validation juridique",
                                        "placeholder" : "Date de la validation juridique"
                                    }
                                }
                            }
                        }
                    },


                                    "calendar" : {
                        "title" : "Calendrier",
                        "description" : "Etapes clefs de la fiche action",
                        "arrayForm" : true,
                        "icon" : "fa-calendar",
                        "json" : {
                            "jsonSchema" : {
                                "title" : "Calendier",
                                "icon" : "fa-calendar",
                                "properties" : {
                                    "results" : {
                                        "inputType" : "arrayForm",
                                        "properties" : {
                                            "step" : {
                                                "inputType" : "text",
                                                "label" : "Etape",
                                                "placeholder" : "Début, fin, étapes, milestone, rendu ..."
                                            },
                                            "date" : {
                                                "inputType" : "date",
                                                "label" : "Date",
                                                "placeholder" : "Donnez une date acette étape"
                                            }
                                        }
                                    }
                                }
                            }
                        }
                    },
                    "validation" : {
                        "title" : "Financement",
                        "description" : "Financement",
                        "icon" : "fa-thumbs-o-up",
                        "json" : {
                            "jsonSchema" : {
                                "title" : "Validation de l'action",
                                "type" : "object",
                                "properties" : {
                                    "techniqueDate" : {
                                        "inputType" : "date",
                                        "label" : "Date de la validation technique",
                                        "placeholder" : "Date de la validation technique"
                                    },
                                    "financière" : {
                                        "inputType" : "textarea",
                                        "label" : "Validation financière",
                                        "placeholder" : "Avis",
                                        "class" : "description3 markdown"
                                    },
                                    "financiereDate" : {
                                        "inputType" : "date",
                                        "label" : "Date de la validation financière",
                                        "placeholder" : "Date de la validation financière"
                                    },
                                    "juridique" : {
                                        "inputType" : "textarea",
                                        "label" : "Validation juridique",
                                        "placeholder" : "Avis",
                                        "class" : "description3 markdown"
                                    },
                                    "juridiqueDate" : {
                                        "inputType" : "date",
                                        "label" : "Date de la validation juridique",
                                        "placeholder" : "Date de la validation juridique"
                                    }
                                }
                            }
                        }
                    },
                    "estimation" : {
                        "title" : "Plan de Financement",
                        "description" : "liste des projets associés à cette fiche action",
                        "arrayForm" : true,
                        "icon" : "fa-money",
                        "json" : {
                            "jsonSchema" : {
                                "title" : "Quel financement",
                                "icon" : "fa-money",
                                "properties" : {
                                    "financement" : {
                                        "title" : "Plan de Financement",
                                        "icon" : "fa-money",
                                        "inputType" : "arrayForm",
                                        "properties" : {
                                            "project" : {
                                                "placeholder" : "Choisissez un projet"
                                            },
                                            "public" : {
                                                "placeholder" : "Financement Public"
                                            },
                                            "amount" : {
                                                "placeholder" : "Montant du Financement"
                                            },
                                            "year" : {
                                                "placeholder" : "Année du Financement"
                                            },
                                            "percent" : {
                                                "placeholder" : "Quelle part du projet globale"
                                            },
                                            "financer" : {
                                                "placeholder" : "Cadre d'intervention"
                                            }
                                        }
                                    }
                                }
                            }
                        }
                    }
                }
            }
        }
    }
}