{
    "costum" : {
        "slug" : "costumize",
        "htmlConstruct" : {
            "header" : {
                "menuTop" : {
                    "left" : {
                        "buttonList" : {
                            "logo" : {
                                "width" : "50",
                                "height" : "50"
                            },
                            "xsMenu" : {
                                "buttonList" : {
                                    "app" : {
                                        "label" : true,
                                        "icon" : true,
                                        "spanTooltip" : false,
                                        "labelClass" : "padding-left-10",
                                        "buttonList" : {
                                            "#sessionAap" : {
                                                "buttonList" : {
                                                    "#session" : true
                                                }
                                            },
                                            "#organismAap" : {
                                                "buttonList" : {
                                                    "#presentationAap" : true,
                                                    "#dashboardAap" : true
                                                }
                                            },
                                            "#proposalDropdown" : {
                                                "buttonList" : {
                                                    "#proposalAap" : true,
                                                    "#myproposalsAap" : true,
                                                    "#newproposalAap" : true
                                                }
                                            },
                                            "#projectDropdown" : {
                                                "buttonList" : {
                                                    "#projectsAap" : true,
                                                    "#myprojectsAap" : true,
                                                    "#newprojectAap" : true
                                                }
                                            },
                                            "#myactionsAap" : true
                                        }
                                    }
                                }
                            },
                            "app" : {
                                "label" : true,
                                "icon" : true,
                                "spanTooltip" : false,
                                "labelClass" : "padding-left-10",
                                "buttonList" : {
                                    "#sessionAap" : {
                                        "buttonList" : {
                                            "#session" : true
                                        }
                                    },
                                    "#organismAap" : {
                                        "buttonList" : {
                                            "#presentationAap" : true,
                                            "#dashboardAap" : true
                                        }
                                    },
                                    "#proposalDropdown" : {
                                        "buttonList" : {
                                            "#proposalAap" : true,
                                            "#myproposalsAap" : true,
                                            "#newproposalAap" : true
                                        }
                                    },
                                    "#projectDropdown" : {
                                        "buttonList" : {
                                            "#projectsAap" : true,
                                            "#myprojectsAap" : true,
                                            "#newprojectAap" : true
                                        }
                                    },
                                    "#myactionsAap" : true
                                },
                                "dropdownFullWidth" : true,
                                "class" : "hidden-xs"
                            }
                        }
                    },
                    "right" : {
                        "buttonList" : {
                            "login" : true,
                            "register" : true,
                            "chat" : true,
                            "notifications" : true,
                            "app" : {
                                "buttonList" : {
                                    "#configurationAap" : true,
                                    "#communityAap" : true,
                                    "#documentationAap" : true
                                }
                            },
                            "userProfil" : {
                                "name" : true,
                                "img" : true
                            },
                            "dropdown" : {
                                "buttonList" : {
                                    "admin" : true,
                                    "logout" : true,
                                    "login" : true
                                }
                            }
                        }
                    }
                }
            },
            "element" : {
                "tplCss" : [
                    "v1.0_pageProfil.css"
                ],
                "banner" : "co2.views.element.bannerHorizontal",
                "containerClass" : {
                    "centralSection" : "col-xs-12 col-lg-10 col-lg-offset-1"
                },
                "menuTop" : {
                    "class" : "col-xs-12",
                    "left" : {
                        "class" : "col-lg-3 col-md-3 col-sm-4 hidden-xs no-padding",
                        "buttonList" : {
                            "imgUploader" : true
                        }
                    },
                    "right" : {
                        "class" : "col-md-12 col-sm-12 col-lg-12 col-xs-12 text-center",
                        "buttonList" : {
                            "xsMenu" : {
                                "class" : "visible-xs",
                                "buttonList" : {
                                    "detail" : true,
                                    "community" : true,
                                    "gallery" : true,
                                    "events" : true,
                                    "classifieds" : true,
                                    "newspaper" : true
                                }
                            },
                            "detail" : true,
                            "community" : true,
                            "gallery" : true,
                            "events" : true,
                            "classifieds" : true,
                            "newspaper" : true,
                            "form" : true
                        }
                    }
                }
            },
            "adminPanel" : {
                "js" : true,
                "add" : true,
                "menu" : {
                    "directory" : true,
                    "reference" : false,
                    "community" : {
                        "label" : "Communauté",
                        "show" : true
                    },
                    "converter" : true,
                    "import" : true,
                    "mails" : false,
                    "log" : false,
                    "moderation" : true,
                    "statistic" : true,
                    "mailerror" : false,
                    "notsendmail" : false
                }
            }
        },
        "typeObj" : {
            "organizations" : {
                "add" : true
            },
            "event" : {
                "add" : true
            },
            "projects" : {
                "add" : true
            },
            "poi" : {
                "add" : true
            }
        },
        "app" : {
            "#menu1" : {
                "isTemplate" : true,
                "staticPage" : true,
                "hash" : "#app.view",
                "urlExtra" : "/page/menu1",
                "subdomainName" : "COMMENT"
            },
            "#menu2" : {
                "isTemplate" : true,
                "staticPage" : true,
                "hash" : "#app.view",
                "urlExtra" : "/page/menu2",
                "subdomainName" : "POURQUOI"
            },
            "#pourquoi" : {
                "isTemplate" : true,
                "staticPage" : true,
                "hash" : "#app.view",
                "urlExtra" : "/page/pourquoi",
                "subdomainName" : "QUI"
            },
            "#agenda" : {
                "useFilter" : true,
                "hash" : "#app.agenda",
                "icon" : "calendar",
                "urlExtra" : "/page/agenda",
                "subdomainName" : "Agenda"
            },
            "#coformAap" : {
                "hash" : "#app.aap",
                "urlExtra" : "/page/coform",
                "subdomainName" : "Soumettre un dossier"
            },
            "#editCoformAap" : {
                "hash" : "#app.aap",
                "urlExtra" : "/page/coform",
                "subdomainName" : "EditProposal"
            },
            "#communityAap" : {
                "hash" : "#app.aap",
                "urlExtra" : "/page/community",
                "subdomainName" : "Communauté",
                "icon" : "users"
            },
            "#configurationAap" : {
                "hash" : "#app.aap",
                "urlExtra" : "/page/configuration",
                "subdomainName" : "Configuration",
                "icon" : "cog"
            },
            "#contributionAap" : {
                "hash" : "#app.aap",
                "urlExtra" : "/page/contribution",
                "subdomainName" : "Contributions"
            },
            "#dashboardAap" : {
                "hash" : "#app.aap",
                "urlExtra" : "/page/dashboard",
                "subdomainName" : "Observatoire"
            },
            "#detailProjectAap" : {
                "hash" : "#app.aap",
                "urlExtra" : "/page/detailProject",
                "subdomainName" : "Detail"
            },
            "#detailProposalAap" : {
                "hash" : "#app.aap",
                "urlExtra" : "/page/detailProposal",
                "subdomainName" : "Detail"
            },
            "#documentationAap" : {
                "subdomainName" : "Documentation",
                "metaDescription" : "",
                "urlExtra" : "/page/documentation",
                "hash" : "#app.aap",
                "icon" : "book"
            },
            "#faqAap" : {
                "hash" : "#app.aap",
                "urlExtra" : "/page/faq",
                "subdomainName" : "FAQ"
            },
            "#myactionsAap" : {
                "hash" : "#app.aap",
                "urlExtra" : "/page/myactions",
                "subdomainName" : "Mes actions"
            },
            "#myprojectsAap" : {
                "hash" : "#app.aap",
                "urlExtra" : "/page/myprojects",
                "subdomainName" : "Mes projets"
            },
            "#myproposalsAap" : {
                "hash" : "#app.aap",
                "urlExtra" : "/page/myproposals",
                "subdomainName" : "Mes propositions"
            },
            "#newprojectAap" : {
                "subdomainName" : "Nouveau projet",
                "urlExtra" : "/page/newproject",
                "icon" : "",
                "hash" : "#app.aap"
            },
            "#newproposalAap" : {
                "subdomainName" : "Nouvelle proposition",
                "urlExtra" : "/page/newproposal",
                "icon" : "",
                "hash" : "#app.aap"
            },
            "#organismAap" : {
                "isTemplate" : true,
                "staticPage" : true,
                "hash" : "#app.view",
                "urlExtra" : "/page/organism",
                "subdomainName" : "Mon organisme",
                "lbhAnchor" : true
            },
            "#organismchooserAap" : {
                "hash" : "#app.aap",
                "urlExtra" : "/page/organismchooser",
                "subdomainName" : "Changer d'organisme",
                "icon" : "users"
            },
            "#presentationAap" : {
                "subdomainName" : "Présentation",
                "metaDescription" : "",
                "urlExtra" : "/page/presentationAap",
                "hash" : "#app.view",
                "icon" : "info-circle"
            },
            "#projectDropdown" : {
                "isTemplate" : true,
                "staticPage" : true,
                "hash" : "#app.view",
                "urlExtra" : "/page/projectDropdown",
                "subdomainName" : "Projets",
                "lbhAnchor" : true
            },
            "#projectsAap" : {
                "hash" : "#app.aap",
                "urlExtra" : "/page/projects",
                "subdomainName" : "Tout",
                "icon" : "trello menu-detail-project btn btn-aap-primary pull-right"
            },
            "#proposalAap" : {
                "hash" : "#app.aap",
                "urlExtra" : "/page/proposal",
                "subdomainName" : "Tout",
                "icon" : "trello menu-detail-proposal btn btn-aap-primary pull-right"
            },
            "#proposalDropdown" : {
                "isTemplate" : true,
                "staticPage" : true,
                "hash" : "#app.view",
                "urlExtra" : "/page/proposalDropdown",
                "subdomainName" : "Propositions",
                "lbhAnchor" : true
            },
            "#sessionAap" : {
                "subdomainName" : "Session",
                "urlExtra" : "/page/session",
                "icon" : "",
                "hash" : "#app.aap"
            },
            "#observatoryAap" : {
                "hash" : "#app.aap",
                "urlExtra" : "/page/observatory",
                "subdomainName" : "Observatoire"
            },
            "#dashboardAap" : {
                "hash" : "#app.aap",
                "urlExtra" : "/page/dashboard",
                "subdomainName" : "Observatoire corému"
            }
        },
        "type" : "aap",
        "css" : {
            "loader" : {
                "background" : "white",
                "ring1" : {
                    "color" : "#df324b",
                    "height" : "360px",
                    "width" : "360px",
                    "left" : "-15px",
                    "borderWidth" : "4px",
                    "top" : "-35px"
                },
                "ring2" : {
                    "color" : "black",
                    "height" : "350px",
                    "width" : "350px",
                    "left" : "-10px",
                    "borderWidth" : "5px",
                    "top" : "-30px"
                },
                "loaderUrl" : "loader_8"
            },
            "progress" : {
                "value" : {
                    "background" : "#df324b"
                },
                "bar" : {
                    "background" : "white"
                }
            },
            "color" : {
                "green" : "#c7d301",
                "bg-green" : "white",
                "purple" : "#5b2649",
                "blue" : "#0091c6",
                "orange" : "#fea621"
            },
            "urls" : [
                "costumize.css"
            ],
            "font" : {
                "url" : "/font/FabEn/SharpSansNo1-Medium.ttf"
            },
            "menuTop" : {
                "background" : "white",
                "boxShadow" : "1px 1px 3px #ddd",
                "left" : {
                    "app" : {
                        "buttonList" : {
                            "fontSize" : "20px",
                            "fontWeight" : 800,
                            "paddingBottom" : "0px",
                            "marginLeft" : "10px",
                            "textTransform" : "capitalize",
                            "color" : "#000000",
                            "lineHeight" : "3"
                        },
                        "paddingLeft" : "30px"
                    },
                    "logo" : {
                        "height" : "70px",
                        "width" : "auto"
                    },
                    "xsMenu" : {
                        "icon" : {
                            "paddingTop" : "0px",
                            "fontSize" : "30px",
                            "color" : "#5b2649"
                        }
                    }
                },
                "right" : {
                    "app" : {
                        "buttonList" : {
                            "fontSize" : "23",
                            "fontWeight" : "normal",
                            "textTransform" : "capitalize",
                            "color" : "#292929",
                            "clipPath" : "",
                            "background" : "",
                            "width" : "auto",
                            "height" : "auto",
                            "paddingLeft" : "2px",
                            "paddingRight" : "7",
                            "paddingTop" : "0",
                            "paddingBottom" : "10px",
                            "hover" : {
                                "background" : "",
                                "color" : "#2c3e50",
                                "textDecoration" : "none"
                            },
                            "marginTop" : "0px",
                            "textAlign" : "center"
                        },
                        "fontSize" : "23",
                        "paddingTop" : "14"
                    },
                    "networkFloop" : {
                        "paddingTop" : "14",
                        "fontSize" : "23",
                        "color" : "#f3652d"
                    },
                    "notifications" : {
                        "paddingTop" : "14",
                        "fontSize" : "23",
                        "color" : "#292929",
                        "badge" : {
                            "background" : "#f3652d",
                            "border" : ""
                        }
                    },
                    "chat" : {
                        "paddingTop" : "14",
                        "fontSize" : "23",
                        "color" : "#292929",
                        "badge" : {
                            "background" : "#f3652d",
                            "border" : ""
                        }
                    },
                    "dropdown" : {
                        "icon" : {
                            "paddingTop" : "0px",
                            "fontSize" : "25",
                            "color" : "#292929"
                        },
                        "marginTop" : "11"
                    },
                    "login" : {
                        "fontSize" : "18",
                        "borderRadius" : "10px",
                        "padding" : "8px 15px",
                        "paddingTop" : "10"
                    },
                    "userProfil" : {
                        "background" : "#ffffff",
                        "color" : "#292929",
                        "borderRadius" : "50px",
                        "display" : "block",
                        "textAlign" : "",
                        "marginLeft" : "10px",
                        "width" : "px",
                        "marginTop" : "12"
                    }
                }
            }
        },
        "tplUsed" : {
            "6486fbbbecbabb3b1f7ef93b" : "using"
        }
    }
}
