{
    "id" : "",
    "name" : "No name form",
    "parent" : {
        "637395a25f9ebfeb7b057f86" : {
            "type" : "organizations",
            "name" : "bidonvile"
        }
    },
    "created" : 1668544997,
    "creator" : "5ef8a3fd690864c5338b4d52",
    "active" : true,
    "anyOnewithLinkCanAnswer" : false,
    "bannerText" : "",
    "canModify" : false,
    "canReadOtherAnswers" : false,
    "description" : "<b> (Pas de description) </b>",
    "endDate" : "26/11/2022 00:00",
    "endDateNoconfirmation" : "26/11/2022 23:43",
    "hasStepValidations" : "",
    "oneAnswerPerPers" : false,
    "private" : false,
    "showAnswers" : false,
    "startDate" : "15/11/2022 23:44",
    "startDateNoconfirmation" : "15/11/2022 23:43",
    "temporarymembercanreply" : true,
    "useBannerImg" : false,
    "useBannerText" : false,
    "what" : "",
    "withconfirmation" : false,
    "updated" : 1668545062
}