[{
    "type" : "indicator",
    "name" : "Evolutions des pratiques agricoles",
    "parent" : {
        "5cebf50a40bb4e283c46ba57" : {
            "type" : "projects",
            "name" : "CTE du Pays d'Arles"
        }
    },
    "source" : {
        "insertOrign" : "costum",
        "keys" : [ 
            "ctenat"
        ],
        "key" : "ctenat"
    },
    "domainAction" : "Pratique agricole durable,  agro-écologie",
    "typectenat" : "Résultat",
    "nameLong" : "surfaces agricoles utiles liées à des démarches de labellisation environnementale",
    "isIndicateurPrincipale" : "true",
    "definition" : "Surfaces utiles d’exploitations agricoles concernées par des démarches de labellisation AB (agriculture biologique)  ou  HVE (haute valeur environnementale), lancées dans le cadre du CTE\n",
    "methodeCalcul" : "Somme des surfaces (en SAU) exploitées selon le label agriculture biologique (certifiée ou en conversion) ou HVE suite à une action prévue dans le cadre du CTE\n",
    "unity1" : "ha",
    "sourceData1" : "Déclaration par chaque porteur d’action du  CTE\nValidation par l’instance de pilotage du CTE",
    "collection" : "poi",
    "modified" : {
        "sec" : NumberLong(1600103054),
        "usec" : NumberLong(0)
    },
    "updated" : NumberLong(1600103054),
    "creator" : "5f4e04be8b509c53448b45a6",
    "created" : NumberLong(1600103054)
},
{
    "type" : "indicator",
    "name" : "Alimentation durable",
    "parent" : {
        "5cebf50a40bb4e283c46ba57" : {
            "type" : "projects",
            "name" : "CTE du Pays d'Arles"
        }
    },
    "source" : {
        "insertOrign" : "costum",
        "keys" : [ 
            "ctenat"
        ],
        "key" : "ctenat"
    },
    "domainAction" : "Restauration et alimentation durable",
    "typectenat" : "Résultat",
    "nameLong" : "part de l’alimentation durable dans la restauration collective",
    "isIndicateurPrincipale" : "true",
    "perimetreGeo" : "Action",
    "definition" : "Ratio de la valeur HT d’achats en € de produits alimentaires de qualité et durables par année civile apportée à la valeur HT en € de l’ensemble des achats de produits alimentaires\n\nL’indicateur et les données nécessaires pour le calculer correspondent aux obligations de la loi EGalim (article 24).",
    "methodeCalcul" : "Produits entrants dans le décompte :\nLes produits issus de l’agriculture biologique (à hauteur de 20 % minimum).\nLes produits de qualité et durables autres que les produits biologiques :\nLes produits bénéficiant des autres signes officiels d’identification de la qualité et de l’origine (SIQO) ou des mentions valorisantes (voir ci-dessous)\n les produits issus d’une exploitation bénéficiant de la certification environnementale de niveau 2 (jusqu’au 31/12/2029),\nLes produits issus de la pêche maritime bénéficiant de l’écolabel Pêche durable\nLes produits bénéficiant du logo « Région ultrapériphérique » (RUP)\nLes produits « équivalents » aux produits bénéficiant de ces signes, mentions, écolabels ou certifications.\nLes produits acquis selon des modalités prenant en compte les coûts imputés aux externalités environnementales liées au produit pendant son cycle de vie.\n\nLes ratios sont calculés en valeur HT d’achats en € de produits alimentaires par année civile (sur l’ensemble des repas, boissons et collations comprises) qui répondent à au moins un des critères , rapportée à la valeur HT en € de l’ensemble des achats de produits alimentaires entrant dans la composition des repas.\n",
    "unity1" : "%",
    "sourceData1" : "Acteurs de la restauration collective concernés par la loi EGalim :\n    • Pour les personnes morales de droit public : l’ensemble des restaurants collectifs dont elles ont la charge ;\n    • Pour les personnes morales de droit privé : les services de restauration scolaire et universitaire, les services de restauration des établissements d’accueil des enfants de moins de six ans, des établissements de santé, des établissements sociaux et médico-sociaux et des établissements pénitentiaires dont elles ont la charge. Il s’agit des services mentionnés à l’article L. 230-5 du CRPM.\n\nLes restaurants administratifs des entreprises privées ne sont pas concernés par les obligations de la loi ; le CTE pourra inciter ces acteurs à produire les données correspondantes.\n\nValidation par l’instance de pilotage du CTE\n\nSource : site internet du Ministère de l’Agriculture et de l’Alimentation\nhttps://agriculture.gouv.fr/les-mesures-de-la-loi-egalim-concernant-la-restauration-collective\nhttps://agriculture.gouv.fr/telecharger/107125?token=fd4fab8f34e14cdebf026c26e3d2865b",
    "collection" : "poi",
    "modified" : {
        "sec" : NumberLong(1600103666),
        "usec" : NumberLong(0)
    },
    "updated" : NumberLong(1600103666),
    "creator" : "5f4e04be8b509c53448b45a6",
    "created" : NumberLong(1600103666)
},
{
    "type" : "indicator",
    "name" : "Impact foncier des actions du CTE",
    "parent" : {
        "5cebf50a40bb4e283c46ba57" : {
            "type" : "projects",
            "name" : "CTE du Pays d'Arles"
        }
    },
    "source" : {
        "insertOrign" : "costum",
        "keys" : [ 
            "ctenat"
        ],
        "key" : "ctenat"
    },
    "domainAction" : "Extension urbaine maîtrisée",
    "typectenat" : "Résultat",
    "nameLong" : "Surfaces artificialisées",
    "isIndicateurPrincipale" : "true",
    "perimetreGeo" : "Action",
    "definition" : "Surfaces artificialisées pour permettre la réalisation des actions du CTE\n(nomenclature des occupations et des usages des sols précisées dans le tableau ci-après)",
    "methodeCalcul" : "Somme des surfaces des espaces naturels, agricoles ou forestiers, affectés à d’autres usages tels que des activités économiques, des espaces résidentiels, des équipements publics, des énergies renouvelables … par des actions du CTE\n\n\n\n\n\n\n\n\n\n\n\n\n\n\n\n\n\n\n\n\n\n\n\n\n\n\n\n\n\n\n\n\n\n\n\n\n\n\n\n\n\n",
    "unity1" : "ha",
    "sourceData1" : "Données déclarées par les porteurs d’actions et validées par l’instance de pilotage du CTE",
    "collection" : "poi",
    "modified" : {
        "sec" : NumberLong(1600104037),
        "usec" : NumberLong(0)
    },
    "updated" : NumberLong(1600104037),
    "creator" : "5f4e04be8b509c53448b45a6",
    "created" : NumberLong(1600104037)
},
{
    "type" : "indicator",
    "name" : "surfaces en faveur de la biodiversité",
    "parent" : {
        "5cebf50a40bb4e283c46ba57" : {
            "type" : "projects",
            "name" : "CTE du Pays d'Arles"
        }
    },
    "source" : {
        "insertOrign" : "costum",
        "keys" : [ 
            "ctenat"
        ],
        "key" : "ctenat"
    },
    "domainAction" : "Connaissance et protection de la biodiversité et milieux naturels",
    "typectenat" : "Résultat",
    "nameLong" : "Surfaces concernées par des actions du CTE en faveur de la biodiversité (hors agriculture bio)",
    "isIndicateurPrincipale" : "true",
    "definition" : "Surfaces prises en comptes :\n    • actions nature en ville : surfaces végétalisées, arborées (parcs publics, jardins partagés, agriculture urbaine, parcs et jardins privés …)\n    • surfaces désartificialisées, réaffectées à un usage « espace naturels »\n    • créations de surfaces d’intérêt écologique (SIE) en agriculture, au-delà des 5% obligatoires pour la PAC\n    • rétablissement de continuité écologiques, terrestre et aquatiques (trames vertes et bleues)\n    • autres mesures de protection de la biodiversité : surfaces concernées\n    • résorption des ruptures et obstacles",
    "methodeCalcul" : "De manière générale, surface des sols concernés par les mesures en faveur de la biodiversité\nRègles pour les continuités écologiques :\n    • cours d’eau : surface cumulée des biefs dont la continuité est  établie\n    • continuités terrestres : surfaces des corridors dont la continuité est établie (pas seulement la surface de l’espace traité pour assurer la continuité)\nActions nature en ville, :\n    • surface des espaces végétalisés (parcs publics, jardins partagés, agriculture urbaine, parcs et jardins privés …)\n    • parcs arborés : 1 m² → 1,5 m²\n    • arbres alignés : 1 ml → 10 m²\n    • arbres isolés : 1 unité → 30 m²\n(Généralisation des règles européennes sur les SIE ; cf tableau ci-dessous)\n\n\n\n\n\n\n\n\n\n\n\n\n\n\n\n\n\n\n\n\n\n\n\n\n\n\n\n\nNota : Les trames noires ne seront pas prises en compte dans cet indicateur ; il n’a pas été identifié de méthode simple permettant de déterminer une surface d’impact.",
    "unity1" : "ha",
    "sourceData1" : "Données déclarées par les porteurs d’actions et validées par l’instance de pilotage du CTE",
    "collection" : "poi",
    "modified" : {
        "sec" : NumberLong(1600104399),
        "usec" : NumberLong(0)
    },
    "updated" : NumberLong(1600104399),
    "creator" : "5f4e04be8b509c53448b45a6",
    "created" : NumberLong(1600104399)
},
{
    "type" : "indicator",
    "name" : "surfaces désimperméabilisées et/ou renaturées ",
    "parent" : {
        "5cebf50a40bb4e283c46ba57" : {
            "type" : "projects",
            "name" : "CTE du Pays d'Arles"
        }
    },
    "source" : {
        "insertOrign" : "costum",
        "keys" : [ 
            "ctenat"
        ],
        "key" : "ctenat"
    },
    "domainAction" : "Connaissance et protection de la biodiversité et milieux naturels",
    "typectenat" : "Résultat",
    "nameLong" : "Surface désimperméabilisées et/ou renaturées dans le cadre du CTE",
    "isIndicateurPrincipale" : "true",
    "perimetreGeo" : "CTE",
    "periode" : "Annuelle",
    "definition" : "Désimperméabilisation : les couches imperméabilisées ont été enlevées et il a été procédé à un décompactage\n\nRenaturation : il a été procédé à un décompactage et à la recréation d’un sol de surface (anthroposol reconstitué ou reconstruit selon la classification RPF - référentiel pédologique français)",
    "methodeCalcul" : "Somme des surfaces artificialisées et qui ont fait, l’objet d’une désimperméabilisation et/ou d’une renaturation dans le cadre du CTE.\nSeront précisées\nles surfaces désimperméabilisées et/ou renaturées réaffectées à un usage naturel, agricole ou forestier (NAF) d’une part,\net les surfaces qui restent à un usage non NAF, d’autre part.",
    "unity1" : "ha",
    "sourceData1" : "Données déclarées par les porteurs d’actions et validées par l’instance de pilotage du CTE\n",
    "collection" : "poi",
    "modified" : {
        "sec" : NumberLong(1600110052),
        "usec" : NumberLong(0)
    },
    "updated" : NumberLong(1600110052),
    "creator" : "5f4e04be8b509c53448b45a6",
    "created" : NumberLong(1600110052)
},
{
    "type" : "indicator",
    "name" : "quantités d’eau économisées",
    "parent" : {
        "5cebf50a40bb4e283c46ba57" : {
            "type" : "projects",
            "name" : "CTE du Pays d'Arles"
        }
    },
    "source" : {
        "insertOrign" : "costum",
        "keys" : [ 
            "ctenat"
        ],
        "key" : "ctenat"
    },
    "domainAction" : "Gestion quantitative et qualitative de l'eau",
    "typectenat" : "Résultat",
    "nameLong" : "Quantités d’eau économisées grâce à des actions du CTE",
    "isIndicateurPrincipale" : "true",
    "perimetreGeo" : "Action",
    "periode" : "Annuelle",
    "definition" : "Quantités d’eau économisées par an grâce à des actions du CTE\n",
    "methodeCalcul" : "Mesure des consommations d’eau avant et après réalisation de l’action\nPrise en compte de variations de consommation d’eau liées à des paramètres météorologiques, de volume de production …",
    "unity1" : "m³/an",
    "sourceData1" : "Données déclarées par les porteurs d’actions et validées par l’instance de pilotage du CTE\n",
    "collection" : "poi",
    "modified" : {
        "sec" : NumberLong(1600110177),
        "usec" : NumberLong(0)
    },
    "updated" : NumberLong(1600110177),
    "creator" : "5f4e04be8b509c53448b45a6",
    "created" : NumberLong(1600110177)
},
{
    "type" : "indicator",
    "name" : "Tonnage de déchets recyclés ou valorisés",
    "parent" : {
        "5cebf50a40bb4e283c46ba57" : {
            "type" : "projects",
            "name" : "CTE du Pays d'Arles"
        }
    },
    "source" : {
        "insertOrign" : "costum",
        "keys" : [ 
            "ctenat"
        ],
        "key" : "ctenat"
    },
    "domainAction" : "Gestion, valorisation des déchets, réemploi",
    "typectenat" : "Résultat",
    "nameLong" : "Tonnage de déchets recyclés ou valorisés dans le cadre du CTE",
    "isIndicateurPrincipale" : "true",
    "perimetreGeo" : "Action",
    "periode" : "Annuelle",
    "definition" : "Masse des déchets valorisés annuellement par les actions du CTE \n    • réemploi\n    • réutilisation\n    • recyclage",
    "methodeCalcul" : "Pesage à réaliser",
    "unity1" : "Tonnes / an",
    "sourceData1" : "Chaque porteur d’action / déclaratif sur la base de pesages organisés et validation par l’instance de pilotage du CTE",
    "collection" : "poi",
    "modified" : {
        "sec" : NumberLong(1600110329),
        "usec" : NumberLong(0)
    },
    "updated" : NumberLong(1600110329),
    "creator" : "5f4e04be8b509c53448b45a6",
    "created" : NumberLong(1600110329)
},
{
    "type" : "indicator",
    "name" : "énergies renouvelables et de récupération ",
    "parent" : {
        "5cebf50a40bb4e283c46ba57" : {
            "type" : "projects",
            "name" : "CTE du Pays d'Arles"
        }
    },
    "source" : {
        "insertOrign" : "costum",
        "keys" : [ 
            "ctenat"
        ],
        "key" : "ctenat"
    },
    "domainAction" : "Production d'énergies renouvelables",
    "typectenat" : "Résultat",
    "nameLong" : "énergies renouvelables et de récupération : puissance installée dans le cadre du CTE  / Énergies renouvelables et de récupération : énergie produite dans le cadre du CTE",
    "isIndicateurPrincipale" : "true",
    "perimetreGeo" : "Action",
    "periode" : "Annuelle",
    "definition" : "Cet indicateur mesure la capacité maximale de production des installations d’énergie renouvelable et de récupération, prévue puis mise en service sur le territoire dans le cadre du CTE, par type, en cumul selon les exigences réglementaires des PCAET (décret n°2016-849 du 28 juin 2016 et arrêté du 4 août 2016 relatifs au plan climat-air-énergie territorial), c'est à dire incluant les filières de production d’électricité (éolien terrestre, solaire photovoltaïque, solaire thermodynamique, hydraulique, biomasse solide, biogaz, géothermie), de chaleur (biomasse solide, pompes à chaleur, géothermie, solaire thermique, biogaz, CSR), de biométhane et de biocarburants",
    "methodeCalcul" : "Puissances installées d’énergie renouvelable et de récupération par filière et par type d’énergie (électricité, chaleur, biométhane et biocarburants) dans le cadre des actions du CTE\nELECTRICITÉ\néolien terrestre\nsolaire photovoltaïque et thermodynamique)(exprimé en Mwc)\nhydraulique\nbiomasse solide\nbiogaz\ngéothermie\nCHALEUR\nbiomasse solide\npompes à chaleur\ngéothermie\nsolaire thermique\nbiogaz\ncombustibles solides de récupération\nchaleur fatale valorisée\nBIOMETHANE / BIOCARBURANTS\n\nSomme des puissances installées par filière (électricité, chaleur, biocarburant, gaz), au total",
    "unity1" : "MW / MWh",
    "sourceData1" : "Porteurs de projets sur la base des caractéristiques des installations mises en service",
    "collection" : "poi",
    "modified" : {
        "sec" : NumberLong(1600111087),
        "usec" : NumberLong(0)
    },
    "updated" : NumberLong(1600111087),
    "creator" : "5f4e04be8b509c53448b45a6",
    "created" : NumberLong(1600111087)
},
{
    "type" : "indicator",
    "name" : "patrimoine immobilier rénové énergétiquemen",
    "parent" : {
        "5cebf50a40bb4e283c46ba57" : {
            "type" : "projects",
            "name" : "CTE du Pays d'Arles"
        }
    },
    "source" : {
        "insertOrign" : "costum",
        "keys" : [ 
            "ctenat"
        ],
        "key" : "ctenat"
    },
    "domainAction" : [ 
        "Efficacité énergétique", 
        "Bâtiment(s) rénovation"
    ],
    "typectenat" : "Résultat",
    "nameLong" : "Surfaces de bâtiments rénovées énergétiquement",
    "isIndicateurPrincipale" : "true",
    "perimetreGeo" : "Action",
    "periode" : "Annuelle",
    "definition" : "Surfaces de bâtiments résidentiels et tertiaires, y/c bâtiments publics traités par une rénovation énergétique dans le cadre d’une action du CTE",
    "methodeCalcul" : "SHON, ou surface « thermique » pour les bâtiments tertiaires, cumulées, ayant fait l’objet d’une rénovation énergétique\n",
    "unity1" : "m²",
    "sourceData1" : "Porteurs de projets",
    "collection" : "poi",
    "modified" : {
        "sec" : NumberLong(1600111216),
        "usec" : NumberLong(0)
    },
    "updated" : NumberLong(1600111216),
    "creator" : "5f4e04be8b509c53448b45a6",
    "created" : NumberLong(1600111216)
},
{
    "type" : "indicator",
    "name" : "Rénovation énergétique du logement",
    "parent" : {
        "5cebf50a40bb4e283c46ba57" : {
            "type" : "projects",
            "name" : "CTE du Pays d'Arles"
        }
    },
    "source" : {
        "insertOrign" : "costum",
        "keys" : [ 
            "ctenat"
        ],
        "key" : "ctenat"
    },
    "domainAction" : [ 
        "Efficacité énergétique", 
        "Bâtiment(s) rénovation"
    ],
    "typectenat" : "Résultat",
    "isIndicateurPrincipale" : "true",
    "perimetreGeo" : "Action",
    "periode" : "Annuelle",
    "definition" : "Nombre de logements rénovés énergétiquement",
    "methodeCalcul" : "Nombre de logements traités par une rénovation énergétique dans le cadre d’une action du CTE\ndont Nombre de logements au niveau BBC après rénovation",
    "unity1" : "nombre",
    "sourceData1" : "Porteurs de projets : animateurs d’OPAH",
    "collection" : "poi",
    "modified" : {
        "sec" : NumberLong(1600111344),
        "usec" : NumberLong(0)
    },
    "updated" : NumberLong(1600111344),
    "creator" : "5f4e04be8b509c53448b45a6",
    "created" : NumberLong(1600111344)
},
{
    "type" : "indicator",
    "name" : "Réduction des consommations énergétiques",
    "parent" : {
        "5cebf50a40bb4e283c46ba57" : {
            "type" : "projects",
            "name" : "CTE du Pays d'Arles"
        }
    },
    "source" : {
        "insertOrign" : "costum",
        "keys" : [ 
            "ctenat"
        ],
        "key" : "ctenat"
    },
    "domainAction" : [ 
        "Eclairage public", 
        "Réseaux verts et intelligents", 
        "Efficacité énergétique", 
        "Mobilités", 
        "Pratique agricole durable,  agro-écologie", 
        "Ecologie industrielle et économie collaborative", 
        "Bâtiment(s) rénovation", 
        "Bâtiment(s) construction neuve"
    ],
    "typectenat" : "Impact",
    "nameLong" : "Gains en consommations d’énergie résultant des actions du CTE ",
    "isIndicateurPrincipale" : "true",
    "perimetreGeo" : "Action",
    "periode" : "Annuelle",
    "definition" : "Gains en consommations d’énergie résultant des différentes actions du CTE.\nDans le cadre de rénovation énergétique du patrimoine immobilier réalisées dans le cadre d’actions du CTE, ces derniers sont estimés sur la base des diagnostics de performance énergétique ou calculés",
    "methodeCalcul" : "Dans le domaine bâtiment : \nEstimation sur la base des diagnostics de performances énergétiques (DPE), recommandé, non obligatoire\nDonnées d’entrée :\nSHON rénovées / surface « thermique » pour les bâtiments tertiaires\nclasse de l’étiquette énergie avant travaux\naprès travaux\nénergie de chauffage avant travaux\naprès travaux\nCalcul des gains d’énergie primaire automatisé (feuille de calcul)\n\nAutres modes de calcul : sous la responsabilité du pilote de l’action / enregistrer les algorithmes de calcul utilisés\n\nA préciser pour les autres thèmes, notamment éclairage public, process industriel…\n",
    "unity1" : "Mwh/an",
    "sourceData1" : "Calcul sur la base des données disponibles\n",
    "collection" : "poi",
    "modified" : {
        "sec" : NumberLong(1600111652),
        "usec" : NumberLong(0)
    },
    "updated" : NumberLong(1600111652),
    "creator" : "5f4e04be8b509c53448b45a6",
    "created" : NumberLong(1600111652)
},
{
    "type" : "indicator",
    "name" : "linéaires d’infrastructures créés en faveur des modes doux",
    "parent" : {
        "5cebf50a40bb4e283c46ba57" : {
            "type" : "projects",
            "name" : "CTE du Pays d'Arles"
        }
    },
    "source" : {
        "insertOrign" : "costum",
        "keys" : [ 
            "ctenat"
        ],
        "key" : "ctenat"
    },
    "domainAction" : [ 
        "Mobilités douces", 
        "Espaces publics, espaces verts"
    ],
    "typectenat" : "Résultat",
    "nameLong" : "Linéaires d’infrastructures créés en faveur des modes doux dans le cadre du CTE",
    "isIndicateurPrincipale" : "true",
    "perimetreGeo" : "Action",
    "periode" : "Annuelle",
    "definition" : "Longueurs de voies en km : \npistes cyclables en site propre\npistes cyclables matérialisées sur voirie : couloirs réservés, couloir bus, double sens cyclable\nvoies vertes",
    "methodeCalcul" : "Les pistes ou bandes cyclables qui existent de chaque côté de la même route doivent être comptées séparément et il convient de multiplier par 2 les pistes bi-directionnelles.\nA exprimer en km",
    "unity1" : "Km",
    "sourceData1" : "Longueurs déclarées par les porteurs d’actions et validées par l’instance de pilotage du CTE",
    "collection" : "poi",
    "modified" : {
        "sec" : NumberLong(1600111841),
        "usec" : NumberLong(0)
    },
    "updated" : NumberLong(1600111841),
    "creator" : "5f4e04be8b509c53448b45a6",
    "created" : NumberLong(1600111841)
},
{
    "type" : "indicator",
    "name" : "nombre de « véhicules propres » mis en circulation",
    "parent" : {
        "5cebf50a40bb4e283c46ba57" : {
            "type" : "projects",
            "name" : "CTE du Pays d'Arles"
        }
    },
    "source" : {
        "insertOrign" : "costum",
        "keys" : [ 
            "ctenat"
        ],
        "key" : "ctenat"
    },
    "domainAction" : [ 
        "Logistique et Fret", 
        "Transports en commun", 
        "Véhicules électriques, hybrides, GNV…"
    ],
    "typectenat" : "Résultat",
    "nameLong" : "Nombre de véhicules propres mis en circulation dans le cadre d’actions du CTE (renouvellement du parc de véhicules)",
    "isIndicateurPrincipale" : "true",
    "perimetreGeo" : "Action",
    "periode" : "Annuelle",
    "definition" : "Nombres de véhicules mis en service dans le cadre d’actions du CTE : \nvélos, vélos à assistance électrique\nvéhicules légers électriques ou hybrides rechargeables\nutilitaires et PL motorisés GNV ou hydrogène ou électrique\nvéhicules de transport en commun motorisés électrique, GNV ou hydrogène",
    "methodeCalcul" : "Somme des « véhicules propres » mis en service dans le cadre du CTE",
    "unity1" : "Nombre",
    "sourceData1" : "Données déclarées par les porteurs d’actions et validées par l’instance de pilotage du CTE",
    "collection" : "poi",
    "modified" : {
        "sec" : NumberLong(1600112004),
        "usec" : NumberLong(0)
    },
    "updated" : NumberLong(1600112004),
    "creator" : "5f4e04be8b509c53448b45a6",
    "created" : NumberLong(1600112004)
},
{
    "type" : "indicator",
    "name" : "Nombre de personnes sensibilisées / formées à la transition écologique ",
    "parent" : {
        "5cebf50a40bb4e283c46ba57" : {
            "type" : "projects",
            "name" : "CTE du Pays d'Arles"
        }
    },
    "source" : {
        "insertOrign" : "costum",
        "keys" : [ 
            "ctenat"
        ],
        "key" : "ctenat"
    },
    "domainAction" : "Sensibilisation et animation de la transition",
    "typectenat" : "Résultat",
    "nameLong" : "Nombre de personnes sensibilisées / formées à la transition écologique au titre du CTE",
    "isIndicateurPrincipale" : "true",
    "perimetreGeo" : "Action",
    "periode" : "Annuelle",
    "definition" : "Nombre de personnes sensibilisées et nombre de personnes formées (formation initiale et continue) à la transition écologique dans le cadre d’actions du CTE ",
    "methodeCalcul" : "Somme des personnes sensibilisées / nombre de personnes formées à la transition écologique dans le cadre des CTE\nNB : possibilité de double compte si des personnes sont concernées par plusieurs actions",
    "unity1" : "Nombre",
    "sourceData1" : "Données déclarées par les porteurs d’actions et validées par l’instance de pilotage du CTE\n",
    "collection" : "poi",
    "modified" : {
        "sec" : NumberLong(1600112199),
        "usec" : NumberLong(0)
    },
    "updated" : NumberLong(1600112199),
    "creator" : "5f4e04be8b509c53448b45a6",
    "created" : NumberLong(1600112199)
},
{
    "type" : "indicator",
    "name" : "Nombre d’actions en faveur de la santé",
    "parent" : {
        "5cebf50a40bb4e283c46ba57" : {
            "type" : "projects",
            "name" : "CTE du Pays d'Arles"
        }
    },
    "source" : {
        "insertOrign" : "costum",
        "keys" : [ 
            "ctenat"
        ],
        "key" : "ctenat"
    },
    "domainAction" : "Santé et soins",
    "typectenat" : "Impact",
    "isIndicateurPrincipale" : "true",
    "perimetreGeo" : "CTE",
    "periode" : "Annuelle",
    "definition" : "Nombre d’actions mises en œuvre dans le cadre du CTE visant l’amélioration de la santé de la population ( non prises en compte de toutes les actions ayant potentiellement un effet indirect sur la santé)\nNotamment : \nactions sur l’offre de soins\nactions d’éducation à la santé\nactions sur la qualité de l’air\n…",
    "methodeCalcul" : "On compte 1 si l’action a un impact direct sur la santé",
    "unity1" : "Nombre",
    "sourceData1" : "Porteur de projet, catégories d’actions validées par l’instance de pilotage du CTE",
    "collection" : "poi",
    "modified" : {
        "sec" : NumberLong(1600112298),
        "usec" : NumberLong(0)
    },
    "updated" : NumberLong(1600112298),
    "creator" : "5f4e04be8b509c53448b45a6",
    "created" : NumberLong(1600112299)
},
{
    "type" : "indicator",
    "name" : "impact des actions du CTE sur les émissions de gaz à effet de serre (GES) ",
    "parent" : {
        "5cebf50a40bb4e283c46ba57" : {
            "type" : "projects",
            "name" : "CTE du Pays d'Arles"
        }
    },
    "source" : {
        "insertOrign" : "costum",
        "keys" : [ 
            "ctenat"
        ],
        "key" : "ctenat"
    },
    "domainAction" : "Efficacité énergétique",
    "typectenat" : "Impact",
    "nameLong" : "impact des actions du CTE sur les émissions de gaz à effet de serre (GES) ",
    "isIndicateurPrincipale" : "true",
    "perimetreGeo" : "Action",
    "periode" : "Annuelle",
    "definition" : "Somme des réductions d’émissions de GES résultant :\n- de rénovations énergétiques du patrimoine immobilier réalisées dans le cadre d’actions du CTE\n-dans le domaine des transports ayant pour objet d’optimiser les systèmes « types de véhicules / énergie de motorisation / distances parcourues par les véhicules »\n- dans le domaine de l’industrie",
    "methodeCalcul" : "Pour le domaine bâtiment : \nEstimation sur la base des diagnostics de performances énergétiques (DPE), recommandé, non obligatoire\nDonnées d’entrée :\n    • SHON rénovées / surface « thermique » pour les bâtiments tertiaires\n    • classe de l’étiquette environnement avant travaux\n    • après travaux\n    • \nCalcul des gains  d’émission de GES automatisé (feuille de calcul)\n\nAutres modes de calcul : sous la responsabilité du pilote de l’action, enregistrer les algorithmes de calcul utilisés\n\n* Dans le domaine de l’industrie : \nPour des opérations spécifiques du CTE ayant une incidence sur les émissions de GES un bilan entre la situation avant-après l’action sera établi en application du guide ministériel : « Méthode pour la réalisation des bilans d’émissions de gaz à effet de serre conformément à l’article L. 229-25 du code de l’environnement » - Version 4 - Octobre 2016\nhttps://www.bilans-ges.ademe.fr/fr/accueil\nhttps://www.bilans-ges.ademe.fr/fr/accueil/contenu/index/page/art75/siGras/1\n\n* Dans le domaine des transports : \nLe bilan est établi à partir :\ndes différences de distances parcourues, par type de véhicule\ndes différences de consommations d’énergie, par type de véhicule (tableau ci-joint)\ndes différences d’émissions de GES à partir des consommations et des émissions par d’énergie (tableau ci-joint)\nhttps://www.ademe.fr/consommations-carburant-emissions-co2-vehicules-particuliers-neufs-vendus-france",
    "unity1" : "Téq CO2 / an",
    "sourceData1" : "Porteur de projet, catégories d’actions validées par l’instance de pilotage du CTE",
    "collection" : "poi",
    "modified" : {
        "sec" : NumberLong(1600112445),
        "usec" : NumberLong(0)
    },
    "updated" : NumberLong(1600112445),
    "creator" : "5f4e04be8b509c53448b45a6",
    "created" : NumberLong(1600112445)
},
{
    "type" : "indicator",
    "name" : "Nombre total d’emplois directs créés",
    "parent" : {
        "5cebf50a40bb4e283c46ba57" : {
            "type" : "projects",
            "name" : "CTE du Pays d'Arles"
        }
    },
    "source" : {
        "insertOrign" : "costum",
        "keys" : [ 
            "ctenat"
        ],
        "key" : "ctenat"
    },
    "typectenat" : "Résultat",
    "nameLong" : "Nombre total d’emplois directs créés par des actions du CTE,",
    "isIndicateurPrincipale" : "true",
    "perimetreGeo" : "Action",
    "periode" : "Annuelle",
    "definition" : "Nombre total d’emplois directs créés sur le territoire par des actions du CTE",
    "methodeCalcul" : "Emplois créés en ETP dans le cadre des actions du CTE",
    "unity1" : "nombre",
    "sourceData1" : "Données déclarées par les porteurs d’actions et validées par l’instance de pilotage du CTE",
    "collection" : "poi",
    "modified" : {
        "sec" : NumberLong(1600113000),
        "usec" : NumberLong(0)
    },
    "updated" : NumberLong(1600113000),
    "creator" : "5f4e04be8b509c53448b45a6",
    "created" : NumberLong(1600113000)
},
{
    "type" : "indicator",
    "name" : "Nombre d’actions en faveur de l’adaptation au changement climatique",
    "parent" : {
        "5cebf50a40bb4e283c46ba57" : {
            "type" : "projects",
            "name" : "CTE du Pays d'Arles"
        }
    },
    "source" : {
        "insertOrign" : "costum",
        "keys" : [ 
            "ctenat"
        ],
        "key" : "ctenat"
    },
    "typectenat" : "Résultat",
    "nameLong" : "Nombre d’actions en faveur de l’adaptation au changement climatique au titre du CTE",
    "isIndicateurPrincipale" : "true",
    "perimetreGeo" : "Action",
    "periode" : "Annuelle",
    "definition" : "Actions mises en œuvre dans le cadre du CTE en faveur de l’adaptation au changement climatique, notamment les actions concernant : \nla résilience vis-à-vis des risques naturels : inondations, mouvements de terrains, sécheresses, canicules, submersions marines, \nla résilience des infrastructures et réseaux\nla gestion de la ressource en eau\nles mesures concernant les écosystèmes aquatiques\nla résilience vis-à-vis des feux de forêt\nl’urbanisme : îlots de chaleur\nle bâti : vulnérabilité, conception bioclimatique\nl’adaptation des pratiques agricoles, agroalimentaires et forestières\nl’adaptation des activités de tourisme (montagne, notamment)\nl’adaptation de l’aquaculture\nla sensibilisation des citoyens\n…",
    "methodeCalcul" : "L’action compte 1 si elle contribue à l’adaptation au changement climatique, y compris les études",
    "unity1" : "nombre",
    "sourceData1" : "Données déclarées par les porteurs d’actions et validées par l’instance de pilotage du CTE",
    "collection" : "poi",
    "modified" : {
        "sec" : NumberLong(1600113145),
        "usec" : NumberLong(0)
    },
    "updated" : NumberLong(1600113145),
    "creator" : "5f4e04be8b509c53448b45a6",
    "created" : NumberLong(1600113145)
},
{
    "type" : "indicator",
    "name" : "nombre total d’emplois verts directs créés",
    "parent" : {
        "5cebf50a40bb4e283c46ba57" : {
            "type" : "projects",
            "name" : "CTE du Pays d'Arles"
        }
    },
    "source" : {
        "insertOrign" : "costum",
        "keys" : [ 
            "ctenat"
        ],
        "key" : "ctenat"
    },
    "typectenat" : "Impact",
    "nameLong" : "Nombre total d’emplois directs verts créés par des actions du CTE",
    "isIndicateurPrincipale" : "true",
    "perimetreGeo" : "Action",
    "periode" : "Annuelle",
    "definition" : "Nombre total d’emplois verts directs créés sur le territoire par des actions du CTE",
    "methodeCalcul" : "Nombre total d’emplois verts directs créés sur le territoire par des actions du CTE, selon la liste des professions et catégorie socioprofessionnelles établie par l’observatoire national des emplois et métiers de l’économie verte (ONEMEV) (voir ci-après)\nMétiers de la connaissance, recherche appliquée\nchargé de recherche sciences environnement\nchargé études assainissement\nchargé études biodiversité\nchargé études déchets\nchargé études droit environnement\nchargé études écologie\nchargé études énergie climat\nchargé études hydraulique\nchargé études méthanisation agricole\nchargé études milieu aquatique\nchargé études qualité air\nchargé études risques industriels\nchargé études risques naturels\nchargé études sites et sols pollues\nchargé études station épuration\nchercheur climatologie\nchercheur écologie\nchercheur écologie biologie\nchercheur écotoxicologie\nchercheur environnement\nchercheur hydrogéologie\nchercheur science forestière\ningénieur études atmosphère\ningénieur études biologie marine\ningénieur études climat\ningénieur études déchets\ningénieur études écologie environnement\ningénieur études écotoxicologie\ningénieur études efficacité énergétique\ningénieur études environnement\ningénieur études observation de la terre\ningénieur études risque industriel\ningénieur études sites et sols pollués\ningénieur recherche écologie\ningénieur recherche écologie forestière\ningénieur recherche environnement\ningénieur recherche et développement contrôle actif du bruit\ningénieur recherche hydrologie\nmaître de conférence écologie\nMétiers du génie climatique/énergétique\nresponsable études génie énergétique et climatique\nmétiers liés à la distribution d'eau potable et à l'assainissement (traitement et gestion des eaux usées)\nagent de maîtrise traitement eau\nagent exploitation station épuration\nagent réseau eau potable et assainissement\ncharge de mission assainissement\ncharge de projet assainissement\nconseiller en eau potable et assainissement\ncontrôleur réseaux assainissement\nhydraulicien\ningénieur assainissement\nopérateur assainissement\nresponsable station épuration\ntechnicien assainissement\ntechnicien d exploitation charge de projet eau et assainissement\ntechnicien exploitation station épuration\ntechnicien protection captages eau potable\nmétiers liés à la gestion des déchets (collecte, traitement, recyclage, valorisation)\nagent collecte déchets\nagent de maîtrise déchets\nagent déchetterie\nagent recyclage\nambassadeur tri\nassistant ingénieur assainissement et gestion déchets\ncharge de mission décret\nchauffeur collecte de déchets\nconducteur benne a ordures\ningénieur gestion déchets et économie circulaire\nmaître composteur\nopérateur de tri\nresponsable déchetterie\nrippeur\ntechnicien traitement déchets\nvaloriste\nMétiers liés à la maîtrise de l'énergie et l'efficacité énergétique\nassistant commercial rénovation énergétique\ncharge de visite auprès des ménages en précarité énergétique\nchef de projet énergétique du bâtiment\nconseiller info énergie\nconseiller technique énergie et bâtiment\nconseiller technique rénovation énergétique\nconsultant efficacité énergétique\ndiagnostiqueur énergétique\ningénieur énergétique bâtiment\ningénieur énergie environnement\ningénieur thermique bâtiment\nouvrier isolation thermique\ntechnicien exploitation efficacité énergétique\ntechnico commercial isolation thermique\nthermicien\nmétiers liés à la mesure de la pollution et aux activités de dépollution\nagent dépollution\naide laboratoire analyses amiante\ndésamianteur\ningénieur dépollution des sols\ntechnicien de laboratoire amiante\ntechnicien de mesure en rejets atmosphériques\ntechnicien prélèvement amiante\nmétiers liés à la préservation des ressources\ncharge mission économie circulaire\nchef de projet économie circulaire\ningénieur analyse cycle de vie\ningénieur construction durable\ningénieur éco conception\nMétiers liés à la prévention, protection, préservation de l’environnement et du patrimoine naturel\nagent entretien des espaces naturels\nagent forestier\nagent technique environnement\nanimateur environnement\nanimateur nature\ncharge de mission foret\ncharge études environnement\néco garde\nécologue\ngarde forestier\ngarde nature\ngarde pèche\ngarde technicien réserve naturelle\ningénieur environnement\ningénieur gestion des espaces naturels\ningénieur gestion des rivières\nresponsable protection milieux aquatiques\ntechnicien de rivière\ntechnicien environnement\ntechnicien forestier\ntechnicien protection des espaces naturels\nMétiers liés à la qualité et à la mise en oeuvre des règles d'hygiène, sécurité, environnement\nagent maintenance hygiène sécurité environnement\nanimateur qualité sécurité environnement\nassistant qualité hygiène sécurité environnement\ncharge de mission qualité sécurité environnement\ncharge mission hygiène sécurité environnement\nconsultant qualité sécurité environnement\ncoordinateur hygiène sécurité environnement\ningénieur hygiène sécurité environnement\nresponsable qualité hygiène sécurité environnement\ntechnicien qualité hygiène sécurité environnement\nmétiers liés à la santé et à l'environnement\ntechnicien de laboratoire écotoxicologie\ntechnicien métrologie santé\nmétiers liés à l'aménagement du paysage\nresponsable aménagement du paysage\nMétiers liés à l'étude de la nature, des écosystèmes, des milieux : qualité de l’air, de l’atmosphère, milieux marins et aquatiques, littoral, de la terre\nanalyste microbiologie des eaux\nbiologiste marin\ncharge de mission biodiversité\ncharge de mission eau et milieu aquatique\ncharge de mission faune et flore\ncharge de mission mer et littoral\ncharge de projet biodiversité\ncharge de projet écologie\ncharge mission hydrobiologie\ncharge mission hydrologie\nhydrobiologiste\nhydrogéologue\nhydrographe\nhydrologiste\ningénieur microbiologie des eaux\ningénieur milieu aquatique\ningénieur qualité air\ntechnicien de laboratoire analyse environnement\ntechnicien de laboratoire hydrologie\ntechnicien de recherche écosystème des sols\ntechnicien gestion biodiversité\ntechnicien hydrobiologiste\ntechnicien laboratoire environnement\ntechnicien milieu aquatique\ntechnicien pollution atmosphérique\ntechnicien prélèvement air\nMétiers liés à l'étude des risques industriels, environnementaux, naturels\ncharge mission risques industriels\ncharge mission risques naturels\nconsultant risques industriels\ninspecteur environnement\ntechnicien chimiste environnement\nMétiers liés à l'étude du climat et du changement climatique\ncharge de mission climat air énergie\nMétiers liés au développement de l'éco-mobilité\ncharge mission éco mobilité\ncharge projet mobilité durable\nconseiller éco mobilité\ningénieur développement mobilité électrique\nMétiers liés au développement des énergies renouvelables\nassistant commercial énergie renouvelable\ncharge affaire énergies renouvelables\ncharge mission énergie\nchef de projet énergies renouvelables\nchef de projet éolien\ncommercial énergies renouvelables\ndépanneur installateur énergies renouvelables\nformateur bâtiment énergies renouvelables\ningénieur énergies renouvelables\nmonteur éolien\nmonteur poseur panneaux photovoltaïques\nposeur panneaux solaires\ntechnicien de maintenance énergies renouvelables\ntechnicien maintenance photovoltaïque\ntechnico commercial chauffage énergie renouvelable\nMétiers liés au développement du tourisme durable\nanimateur écotourisme\nMétiers liés au développement d'une agriculture durable\ncharge certification agriculture biologique\ncharge de mission agriculture biologique\ncharge de mission agriculture environnement\nchef de projet agriculture durable\nconseiller de vente alimentation biologique\nemployé vente produits biologiques\nmaraîcher biologique\nresponsable magasin produits biologiques\ntechnicien conseil production végétale bio\nMétiers liés au nettoyage des espaces urbains",
    "unity1" : "nombre",
    "sourceData1" : "Données déclarées par les porteurs d’actions et validées par l’instance de pilotage du CTE",
    "collection" : "poi",
    "modified" : {
        "sec" : NumberLong(1600113498),
        "usec" : NumberLong(0)
    },
    "updated" : NumberLong(1600113498),
    "creator" : "5f4e04be8b509c53448b45a6",
    "created" : NumberLong(1600113498)
}
]