{  
    "id" : "deal4",
    "type" : "openForm",
    "name" : "Etape 4 - Suivi des travaux",
    "inputs" : {
        "step" : {
            "label" : "Email address xxxx",
            "placeholder" : "Enter email",
            "type" : "text",
            "info" : "It seems that perfection is reached not when there is nothing left to add, but when there is nothing left to take away - Antoine de Saint Exupéry"
        }
    }
}